15/01/2018:3:3:2:5:true:false:true:false
15/01/2018:3:3:2:5:true:false:true:false
15/02/2018:1:1:2:5:true:false:true:false
15/03/2018:1:2:1:5:true:false:true:false
15/03/2018:1:2:2:5:true:false:true:false
